<?xml version="1.0" encoding="UTF-8"?>
<svg width="28px" height="29px" viewBox="0 0 28 29" version="1.1" xmlns="http://www.w3.org/2000/svg" xmlns:xlink="http://www.w3.org/1999/xlink">
    <!-- Generator: Sketch 53.2 (72643) - https://sketchapp.com -->
    <title>Group 16</title>
    <desc>Created with Sketch.</desc>
    <defs>
        <path d="M0.178875,13.8626552 C0.178176724,16.3033621 0.793125,18.6865 1.96262069,20.7872241 L1.96262069,20.7872241 L0.0670344828,27.9645172 L7.14964655,26.0385517 C9.10097845,27.1415345 11.2979871,27.7235 13.5339828,27.7242241 L13.5339828,27.7242241 L13.5398017,27.7242241 C20.9030043,27.7242241 26.8966552,21.5106379 26.899681,13.8735172 L26.899681,13.8735172 C26.901194,10.1726897 25.5127888,6.69272414 22.9901509,4.07472414 L22.9901509,4.07472414 C20.4679784,1.45672414 17.1134612,0.014362069 13.5393362,0.0126724138 L13.5393362,0.0126724138 C6.17543534,0.0126724138 0.182017241,6.22577586 0.178875,13.8626552" id="path-1"></path>
        <linearGradient x1="50.0002336%" y1="99.9998853%" x2="50.0002336%" y2="-0.000113816434%" id="linearGradient-3">
            <stop stop-color="#1FAF38" offset="0%"></stop>
            <stop stop-color="#60D669" offset="100%"></stop>
        </linearGradient>
        <path d="M0.167883333,14.4185353 C0.167066667,16.9397303 0.8057,19.4007593 2.01961667,21.5702241 L2.01961667,21.5702241 L0.0513333333,28.9827925 L7.40611667,26.9937054 C9.4325,28.1334896 11.71415,28.7341867 14.0358167,28.735029 L14.0358167,28.735029 L14.0418833,28.735029 C21.6879833,28.735029 27.9122667,22.3171245 27.9155333,14.4300871 L27.9155333,14.4300871 C27.9168167,10.6076224 26.4749333,7.01354772 23.85565,4.30956846 L23.85565,4.30956846 C21.2361333,1.60582988 17.7529333,0.116120332 14.0418833,0.114435685 L14.0418833,0.114435685 C6.39438333,0.114435685 0.170916667,6.53125726 0.167883333,14.4185353 L0.167883333,14.4185353 Z M4.54766667,21.1967137 L4.27315,20.7470332 C3.11885,18.8538506 2.50938333,16.6659751 2.5102,14.4194979 L2.5102,14.4194979 C2.51276667,7.86381328 7.68541667,2.53058091 14.0462,2.53058091 L14.0462,2.53058091 C17.1263167,2.53190456 20.0211667,3.77012033 22.1985167,6.0173195 L22.1985167,6.0173195 C24.3758667,8.264639 25.5738,11.252 25.5729833,14.4291245 L25.5729833,14.4291245 C25.5703,20.9850498 20.3974167,26.3190041 14.0418833,26.3190041 L14.0418833,26.3190041 L14.0372167,26.3190041 C11.9676667,26.3179212 9.93836667,25.7449004 8.16818333,24.6614315 L8.16818333,24.6614315 L7.74678333,24.4039212 L3.3824,25.5841369 L4.54766667,21.1967137 Z" id="path-4"></path>
        <linearGradient x1="50.0001142%" y1="99.999931%" x2="50.0001142%" y2="-0.000192325327%" id="linearGradient-6">
            <stop stop-color="#F4F4F4" offset="0%"></stop>
            <stop stop-color="#FCFCFC" offset="100%"></stop>
        </linearGradient>
    </defs>
    <g id="Page-1" stroke="none" stroke-width="1" fill="none" fill-rule="evenodd">
        <g id="Price_Detail_01-Copy" transform="translate(-975.000000, -1516.000000)">
            <g id="Group-16" transform="translate(975.000000, 1516.000000)">
                <g id="Group-12" transform="translate(1.000000, 1.000000)">
                    <mask id="mask-2" fill="white">
                        <use xlink:href="#path-1"></use>
                    </mask>
                    <g id="Clip-11"></g>
                    <path d="M1.10003383,13.8828546 C1.09940926,16.1531297 1.64943917,18.3698559 2.69547446,20.3238889 L2.69547446,20.3238889 L1,27 L7.33492047,25.2085224 C9.0802557,26.2344852 11.0453322,26.7758127 13.0452801,26.7764863 L13.0452801,26.7764863 L13.0504848,26.7764863 C19.6363746,26.7764863 24.9972925,20.9967876 24.9999989,13.8929581 L24.9999989,13.8929581 C25.0013521,10.450555 23.759517,7.21359148 21.5031869,4.77840337 L21.5031869,4.77840337 C19.2472732,2.34321527 16.246883,1.00157167 13.0500684,1 L13.0500684,1 C6.46355402,1 1.10284435,6.77924966 1.10003383,13.8828546" id="Fill-10" fill="url(#linearGradient-3)" mask="url(#mask-2)"></path>
                </g>
                <g id="Group-15">
                    <mask id="mask-5" fill="white">
                        <use xlink:href="#path-4"></use>
                    </mask>
                    <g id="Clip-14"></g>
                    <path d="M0.167883333,14.4185353 C0.167066667,16.9397303 0.8057,19.4007593 2.01961667,21.5702241 L2.01961667,21.5702241 L0.0513333333,28.9827925 L7.40611667,26.9937054 C9.4325,28.1334896 11.71415,28.7341867 14.0358167,28.735029 L14.0358167,28.735029 L14.0418833,28.735029 C21.6879833,28.735029 27.9122667,22.3171245 27.9155333,14.4300871 L27.9155333,14.4300871 C27.9168167,10.6076224 26.4749333,7.01354772 23.85565,4.30956846 L23.85565,4.30956846 C21.2361333,1.60582988 17.7529333,0.116120332 14.0418833,0.114435685 L14.0418833,0.114435685 C6.39438333,0.114435685 0.170916667,6.53125726 0.167883333,14.4185353 L0.167883333,14.4185353 Z M4.54766667,21.1967137 L4.27315,20.7470332 C3.11885,18.8538506 2.50938333,16.6659751 2.5102,14.4194979 L2.5102,14.4194979 C2.51276667,7.86381328 7.68541667,2.53058091 14.0462,2.53058091 L14.0462,2.53058091 C17.1263167,2.53190456 20.0211667,3.77012033 22.1985167,6.0173195 L22.1985167,6.0173195 C24.3758667,8.264639 25.5738,11.252 25.5729833,14.4291245 L25.5729833,14.4291245 C25.5703,20.9850498 20.3974167,26.3190041 14.0418833,26.3190041 L14.0418833,26.3190041 L14.0372167,26.3190041 C11.9676667,26.3179212 9.93836667,25.7449004 8.16818333,24.6614315 L8.16818333,24.6614315 L7.74678333,24.4039212 L3.3824,25.5841369 L4.54766667,21.1967137 Z" id="Fill-13" fill="url(#linearGradient-6)" mask="url(#mask-5)"></path>
                </g>
                <path d="M10.5594454,8.60401713 C10.3013987,8.02971757 10.0297888,8.01822694 9.78426186,8.00812911 C9.58359747,7.99954015 9.35372024,8.00000442 9.12419078,8.00000442 C8.8945454,8.00000442 8.52138615,8.08647434 8.20572519,8.43154155 C7.8899483,8.77660877 7,9.61089842 7,11.3075659 C7,13.0045817 8.23435841,14.6442603 8.4065055,14.8744212 C8.57876852,15.104466 10.7894386,18.6976684 14.2905743,20.0800265 C17.2001499,21.2288577 17.7924055,21.0003218 18.4239592,20.9428686 C19.0553971,20.8854154 20.4617867,20.1088111 20.7488144,19.3034221 C21.0359581,18.4982653 21.0359581,17.8080148 20.9498266,17.6638596 C20.8636951,17.5200525 20.6339338,17.4339308 20.2895237,17.2614552 C19.9449976,17.0889797 18.2515803,16.254574 17.9359193,16.1395515 C17.6200265,16.0245291 17.3903811,15.967076 17.1607358,16.3123753 C16.9310904,16.6572104 16.2712512,17.4339308 16.0703549,17.6638596 C15.8694587,17.8942526 15.6684465,17.9230372 15.3240364,17.7505616 C14.9795104,17.5775057 13.8702339,17.2138678 12.5540332,16.0389215 C11.5300768,15.1248938 10.8387063,13.996026 10.63781,13.6507267 C10.4367979,13.3057755 10.6162482,13.1190237 10.7889749,12.9470124 C10.9437334,12.7925272 11.1336168,12.544492 11.3057639,12.3431158 C11.4776792,12.1417395 11.5351775,11.9980486 11.6499422,11.7681198 C11.7647069,11.5377268 11.7073246,11.3364666 11.621193,11.1639911 C11.5351775,10.9915155 10.8657165,9.2859108 10.5594454,8.60401713" id="Fill-16" fill="#FFFFFF"></path>
            </g>
        </g>
    </g>
</svg>