<?xml version="1.0" encoding="utf-8"?>
<!-- Generator: Adobe Illustrator 21.1.0, SVG Export Plug-In . SVG Version: 6.00 Build 0)  -->
<svg version="1.1" id="Layer_1" xmlns="http://www.w3.org/2000/svg" xmlns:xlink="http://www.w3.org/1999/xlink" x="0px" y="0px"
	 viewBox="0 0 55 55" style="enable-background:new 0 0 55 55;" xml:space="preserve">
<style type="text/css">
	.st0{fill:#2EBA9D;}
</style>
<title>Pop_Ups</title>
<g>
	<path class="st0" d="M37.4,18.6c-3.5,0-6.3-2.8-6.3-6.3c0-3.5,2.8-6.3,6.3-6.3c3.5,0,6.3,2.8,6.3,6.3
		C43.7,15.7,40.8,18.6,37.4,18.6z M37.4,6.9c-2.9,0-5.3,2.4-5.3,5.3s2.4,5.3,5.3,5.3s5.3-2.4,5.3-5.3c0,0,0,0,0,0
		C42.7,9.3,40.3,6.9,37.4,6.9z"/>
</g>
<g>
	<path class="st0" d="M39.4,10.4h-1.4c0.2,0.2,0.4,0.5,0.4,0.8h1v0.5h-1c-0.1,0.9-0.9,1.5-1.8,1.4c0.6,0.6,1.3,1.5,2,2.3h-1.1
		c-0.6-0.7-1.2-1.5-2-2.3v-0.7h0.5c0.8,0,1.2-0.3,1.3-0.8h-1.8v-0.5h1.8c-0.1-0.4-0.5-0.6-1.2-0.6h-0.6V9.9h3.8L39.4,10.4z"/>
</g>
<g>
	<path class="st0" d="M26.3,16.5H7.8c-0.4,0-0.7-0.3-0.7-0.7s0.3-0.7,0.7-0.7h18.5c0.4,0,0.7,0.3,0.7,0.7S26.7,16.5,26.3,16.5z"/>
</g>
<g>
	<path class="st0" d="M1.6,48.6c-0.4,0-0.7-0.3-0.7-0.7c0,0,0-0.1,0-0.1V14.6c0-1.9,0.7-3.6,2-4.9c1.3-1.3,3-1.9,4.9-2
		c0.4,0,0.7,0.3,0.7,0.7v33.3c0,0.4-0.3,0.7-0.7,0.7c-3,0-5.4,2.4-5.4,5.4v0.1C2.3,48.3,2,48.6,1.6,48.6C1.6,48.6,1.6,48.6,1.6,48.6
		z M7.1,9.2C5.9,9.3,4.8,9.8,4,10.7c-1,1-1.6,2.4-1.6,3.8v29.1c1.1-1.4,2.8-2.4,4.7-2.6V9.2z"/>
</g>
<g>
	<path class="st0" d="M53.4,54.7H7.8c-3.8,0-6.9-3.1-6.9-6.9c0-0.4,0.3-0.7,0.7-0.7c0.4,0,0.7,0.3,0.7,0.7c0,3,2.5,5.4,5.5,5.4h44.8
		V16.5h-4.2c-0.4,0-0.7-0.3-0.7-0.7s0.3-0.7,0.7-0.7h4.9c0.4,0,0.7,0.3,0.7,0.7V54C54.1,54.4,53.8,54.7,53.4,54.7z"/>
</g>
<g>
	<path class="st0" d="M16.4,52.3c-0.4,0-0.7-0.3-0.7-0.7V35h-5.4c-0.4,0-0.7-0.3-0.7-0.7s0.3-0.7,0.7-0.7h6.2c0.4,0,0.7,0.3,0.7,0.7
		v17.3C17.1,51.9,16.8,52.3,16.4,52.3z"/>
</g>
<g>
	<path class="st0" d="M16.4,28.8h-6.2c-0.4,0-0.7-0.3-0.7-0.7s0.3-0.7,0.7-0.7h5.4v-9.1c0-0.4,0.3-0.7,0.7-0.7s0.7,0.3,0.7,0.7v9.9
		C17.1,28.5,16.8,28.8,16.4,28.8z"/>
</g>
<g>
	<path class="st0" d="M50.9,39.9H22.6c-0.4,0-0.7-0.3-0.7-0.7v-21c0-0.4,0.3-0.7,0.7-0.7s0.7,0.3,0.7,0.7v20.2h27.6
		c0.4,0,0.7,0.3,0.7,0.7S51.3,39.9,50.9,39.9z"/>
</g>
<g>
	<path class="st0" d="M22.6,52.3c-0.4,0-0.7-0.3-0.7-0.7v-6.2c0-0.4,0.3-0.7,0.7-0.7h28.4c0.4,0,0.7,0.3,0.7,0.7s-0.3,0.7-0.7,0.7
		H23.3v5.4C23.3,51.9,23,52.3,22.6,52.3z"/>
</g>
<g>
	<path class="st0" d="M37.3,32.5L37.3,32.5c-0.2,0-0.5-0.1-0.6-0.3c-0.3-0.4-7.7-11-9.2-13.3c-1.4-2.1-2.1-4.6-2-7.2
		c0.1-6.4,5.3-11.5,11.7-11.5c0.1,0,0.1,0,0.2,0c6.4,0,11.6,5.2,11.7,11.5c0.1,2.5-0.6,5.1-2,7.1c-1.5,2.3-8.9,12.8-9.2,13.3
		C37.8,32.4,37.6,32.5,37.3,32.5z M37.2,1.7c-5.6,0-10.2,4.5-10.3,10.1c-0.1,2.2,0.5,4.5,1.8,6.3c1.2,1.9,6.8,9.8,8.6,12.4
		c1.8-2.6,7.4-10.5,8.6-12.4c1.3-1.9,1.9-4.1,1.8-6.3C47.6,6.2,43,1.7,37.5,1.7c0,0-0.1,0-0.1,0C37.3,1.7,37.3,1.7,37.2,1.7z"/>
</g>
</svg>
